Displacement Effect Analysis in Public Health Financing
…
results_by_ctry <- usable %>%
  group_by(code, location) %>%
  group_modify(~ fit_one(.x)) %>%
  ungroup() %>%
  arrange(estimate)

print(results_by_ctry)

# A tibble: 45 × 10
   code  location term   estimate std.error statistic p.value conf.low conf.high
   <chr> <chr>    <chr>     <dbl>     <dbl>     <dbl>   <dbl>    <dbl>     <dbl>
 1 AGO   Angola   ext_p…   -2.97     2.19      -1.36  0.190     -7.54     1.60  
 2 BWA   Botswana ext_p…   -2.57     0.824     -3.12  0.00545   -4.28    -0.848 
 3 GHA   Ghana    ext_p…   -0.693    0.251     -2.76  0.0120    -1.22    -0.170 
 4 SDN   Sudan    ext_p…   -0.513    0.961     -0.534 0.600     -2.54     1.51  
 5 SWZ   Eswatini ext_p…   -0.227    0.150     -1.52  0.145     -0.539    0.0853
 6 NGA   Nigeria  ext_p…   -0.191    0.144     -1.33  0.200     -0.492    0.110 
 7 NER   Niger    ext_p…   -0.180    0.236     -0.763 0.454     -0.673    0.313 
 8 LSO   Lesotho  ext_p…   -0.172    0.0610    -2.83  0.0104    -0.300   -0.0452
 9 TCD   Chad     ext_p…   -0.127    0.199     -0.638 0.531     -0.543    0.289 
10 SEN   Senegal  ext_p…   -0.124    0.164     -0.757 0.458     -0.466    0.218 
# ℹ 35 more rows
# ℹ 1 more variable: n_obs <int>
…
